Functional Annotation with Ensembl Biomart, GO, and KeGG
…
#> # A tibble: 5 x 3
#>                   dataset                                  description      version
#>                     <chr>                                        <chr>        <chr>
#> 1  lafricana_gene_ensembl                   Elephant genes (Loxafr3.0)    Loxafr3.0
#> 2 oniloticus_gene_ensembl                    Tilapia genes (Orenil1.0)    Orenil1.0
#> 3 cchok1gshd_gene_ensembl Chinese hamster CHOK1GS genes (CHOK1GS_HDv1) CHOK1GS_HDv1
#> 4   csabaeus_gene_ensembl                 Vervet-AGM genes (ChlSab1.1)    ChlSab1.1
#> 5   jjaculus_gene_ensembl     Lesser Egyptian jerboa genes (JacJac1.0)    JacJac1.0

Now you can select the dataset hsapiens_gene_ensembl and list all available attributes that can be retrieved from this dataset.

tail(getDatasets(mart = "ENSEMBL_MART_ENSEMBL") , 38)

#> # A tibble: 38 x 3
#>                       dataset                            description           version
#>                         <chr>                                  <chr>             <chr>
#>  1    ttruncatus_gene_ensembl                Dolphin genes (turTru1)           turTru1
#>  2        odegus_gene_ensembl                 Degu genes (OctDeg1.0)         OctDeg1.0
#>  3         hmale_gene_ensembl Naked mole-rat male genes (HetGla_1.0)        HetGla_1.0
#>  4     csavignyi_gene_ensembl            C.savignyi genes (CSAV 2.0)          CSAV 2.0
#>  5       mpahari_gene_ensembl    Shrew mouse genes (PAHARI_EIJ_v1.1)   PAHARI_EIJ_v1.1
#>  6    gaculeatus_gene_ensembl           Stickleback genes (BROAD S1)          BROAD S1
#>  7     etelfairi_gene_ensembl  Lesser hedgehog tenrec genes (TENREC)            TENREC
#>  8 acarolinensis_gene_ensembl         Anole lizard genes (AnoCar2.0)         AnoCar2.0
#>  9       ggallus_gene_ensembl      Chicken genes (Gallus_gallus-5.0) Gallus_gallus-5.0
#> 10 dmelanogaster_gene_ensembl                 Fruitfly genes (BDGP6)             BDGP6
#> # ... with 28 more rows
…
