Meta-Genome Retrieval
…
An example summary file of all organism looks like this (here we use 105 Plant species as an example):

# A tibble: 105 x 16
   file_name     organism   url             database path  refseq_category
   <chr>         <chr>      <chr>           <chr>    <chr> <chr>          
 1 Aegilops_tau… Aegilops_… ftp://ftp.ncbi… refseq   Prot… representative…
 2 Amborella_tr… Amborella… ftp://ftp.ncbi… refseq   Prot… representative…
 3 Ananas_comos… Ananas_co… ftp://ftp.ncbi… refseq   Prot… representative…
 4 Arabidopsis_… Arabidops… ftp://ftp.ncbi… refseq   Prot… representative…
 5 Arabidopsis_… Arabidops… ftp://ftp.ncbi… refseq   Prot… reference geno…
 6 Arachis_dura… Arachis_d… ftp://ftp.ncbi… refseq   Prot… representative…
 7 Arachis_ipae… Arachis_i… ftp://ftp.ncbi… refseq   Prot… representative…
 8 Asparagus_of… Asparagus… ftp://ftp.ncbi… refseq   Prot… representative…
 9 Auxenochlore… Auxenochl… ftp://ftp.ncbi… refseq   Prot… representative…
10 Bathycoccus_… Bathycocc… ftp://ftp.ncbi… refseq   Prot… representative…
# ... with 95 more rows, and 10 more variables: assembly_accession <chr>,
#   bioproject <chr>, biosample <chr>, taxid <int>,
#   infraspecific_name <chr>, version_status <chr>, release_type <chr>,
#   genome_rep <chr>, seq_rel_date <date>, submitter <chr>
…
Internally the listMetaGenomes() function downloads the assembly_summary.txt file from ftp://ftp.ncbi.nlm.nih.gov/genomes/genbank/metagenomes/ to retrieve available metagenome information. This procedure might take a few seconds during the first run of listMetaGenomes(). Subsequently, the assembly_summary.txt file will be stored in the tempdir() directory to achieve a much faster access of this information during following uses of listMetaGenomes().

In case users wish to retrieve detailed information about available metagenome projects they can specify the details = TRUE argument.

# show all elements of the data.frame
options(tibble.print_max = Inf)
# detailed information on available metagenomes at NCBI Genbank
listMetaGenomes(details = TRUE)

# A tibble: 857 x 21
   assembly_accession bioproject    biosample     wgs_master refseq_category  taxid species_taxid
                <chr>      <chr>        <chr>          <chr>           <chr>  <int>         <int>
1     GCA_000206185.1 PRJNA32359 SAMN02954317 AAGA00000000.1              na 256318        256318
2     GCA_000206205.1 PRJNA32355 SAMN02954315 AAFZ00000000.1              na 256318        256318
3     GCA_000206225.1 PRJNA32357 SAMN02954316 AAFY00000000.1              na 256318        256318
4     GCA_000208265.2 PRJNA17779 SAMN02954240 AASZ00000000.1              na 256318        256318
5     GCA_000208285.1 PRJNA17657 SAMN02954268 AATO00000000.1              na 256318        256318
6     GCA_000208305.1 PRJNA17659 SAMN02954269 AATN00000000.1              na 256318        256318
7     GCA_000208325.1 PRJNA16729 SAMN02954263 AAQL00000000.1              na 256318        256318
8     GCA_000208345.1 PRJNA16729 SAMN02954262 AAQK00000000.1              na 256318        256318
9     GCA_000208365.1 PRJNA13699 SAMN02954283 AAFX00000000.1              na 256318        256318
10    GCA_900010595.1 PRJEB11544 SAMEA3639840 CZPY00000000.1              na 256318        256318
# ... with 847 more rows, and 14 more variables: organism_name <chr>, infraspecific_name <chr>,
#   isolate <chr>, version_status <chr>, assembly_level <chr>, release_type <chr>, genome_rep <chr>,
#   seq_rel_date <date>, asm_name <chr>, submitter <chr>, gbrs_paired_asm <chr>, paired_asm_comp <chr>,
#   ftp_path <chr>, excluded_from_refseq <chr>
…
